\relax 
\citation{Harary1983}
\citation{FABREGA199649}
\citation{Ma2008,FABREGA199649}
\citation{Latifi1994,YANG2009887,HSIEH201263,YU201386,CHEN20071848,NING201765,WAN2009264,Yang2013,ZHANG2014374,Wang2018336,4335424,Wang201852,Boesch1984}
\@writefile{toc}{\contentsline {section}{\numberline {1}Introduction}{1}}
\citation{Lin2016}
\citation{Lin2016}
\citation{Sabir2018,Huazhong,Dong2018Structure,Lv2018,wang2019structure}
\citation{Choudum2002}
\citation{Hsu2005,Ma2007Panconnectivity}
\@writefile{lof}{\contentsline {figure}{\numberline {1}{\ignorespaces $K_{1,M},P_L$ and $C_N$}}{2}}
\newlabel{K_1_M_P_Q_C_N}{{1}{2}}
\@writefile{toc}{\contentsline {section}{\numberline {2}Preliminaries}{3}}
\@writefile{toc}{\contentsline {section}{\numberline {3}Conclusions}{3}}
